{
  "project_info": {
    "project_number": "156605428599",
    "firebase_url": "https://finolex-sales.firebaseio.com",
    "project_id": "finolex-sales",
    "storage_bucket": "finolex-sales.appspot.com"
  },
  "client": [
    {
      "client_info": {
        "mobilesdk_app_id": "1:156605428599:android:2d4fa938a60ee532",
        "android_client_info": {
          "package_name": "com.finolex.sales"
        }
      },
      "oauth_client": [
        {
          "client_id": "156605428599-1jv73dhk9p5ci1fns2bmqdkf14sgldps.apps.googleusercontent.com",
          "client_type": 3
        },
        {
          "client_id": "156605428599-1jv73dhk9p5ci1fns2bmqdkf14sgldps.apps.googleusercontent.com",
          "client_type": 3
        }
      ],
      "api_key": [
        {
          "current_key": "AIzaSyB1lxQ4WRtaOrMGf1OKU_OPtKpMIBzCFtE"
        }
      ],
      "services": {
        "analytics_service": {
          "status": 1
        },
        "appinvite_service": {
          "status": 1,
          "other_platform_oauth_client": []
        },
        "ads_service": {
          "status": 2
        }
      }
    }
  ],
  "configuration_version": "1"
}