<?xml version="1.0" encoding="utf-8"?>
<!-- Generator: Adobe Illustrator 22.1.0, SVG Export Plug-In . SVG Version: 6.00 Build 0)  -->
<svg version="1.1" id="Layer_1" xmlns="http://www.w3.org/2000/svg" xmlns:xlink="http://www.w3.org/1999/xlink" x="0px" y="0px"
	 viewBox="0 0 489.8 489.8" style="enable-background:new 0 0 489.8 489.8;" xml:space="preserve">
<style type="text/css">
	.st0{fill:#059DE8;}
	.st1{fill:#17469E;}
</style>
<g>
	<g>
		<path class="st0" d="M479.9,2.3H9.9C4.4,2.3,0,6.7,0,12.1S4.4,22,9.9,22h18.3v287c0,14.5,11.8,26.3,26.3,26.3h382.6
			c14.5,0,26.3-11.8,26.3-26.3V22h16.5c5.5,0,9.9-4.4,9.9-9.9S485.4,2.3,479.9,2.3z M443.6,309c0,3.6-2.9,6.5-6.5,6.5H54.5
			c-3.6,0-6.5-2.9-6.5-6.5V22h395.6V309z"/>
		<path class="st0" d="M260.5,400.8V375H295c5.5,0,9.9-4.4,9.9-9.9s-4.4-9.9-9.9-9.9h-90.2c-5.5,0-9.9,4.4-9.9,9.9s4.4,9.9,9.9,9.9
			h35.9v25.7l-69.9,69.9c-3.9,3.9-3.9,10.1,0,14c1.9,1.9,4.5,2.9,7,2.9s5.1-1,7-2.9l55.9-55.9v48.9c0,5.5,4.4,9.9,9.9,9.9
			s9.9-4.4,9.9-9.9v-48.9l55.6,55.6c1.9,1.9,4.5,2.9,7,2.9s5.1-1,7-2.9c3.9-3.9,3.9-10.1,0-14L260.5,400.8z"/>
		<path class="st1" d="M282.3,147.6h75.6c5.5,0,9.9-4.4,9.9-9.9c0-20.9-7.6-41-21.4-56.6c-16.2-18.4-39.6-28.9-64.1-28.9
			c-5.5,0-9.9,4.4-9.9,9.9v75.6C272.4,143.3,276.8,147.6,282.3,147.6z M292.2,72.8c15.1,2.3,29.1,9.8,39.3,21.4
			c8.4,9.5,13.8,21.2,15.7,33.6h-55V72.8z"/>
		<path class="st1" d="M239.7,285.3c58.5,0,106.2-47.6,106.2-106.2c0-5.5-4.4-9.9-9.9-9.9h-86.4V82.9c0-5.5-4.4-9.9-9.9-9.9
			c-58.5,0-106.2,47.6-106.2,106.2C133.5,237.6,181.1,285.3,239.7,285.3z M229.7,93.3v85.8c0,5.5,4.4,9.9,9.9,9.9h85.8
			c-4.9,43-41.5,76.5-85.8,76.5c-47.6,0-86.4-38.7-86.4-86.4C153.3,134.9,186.8,98.3,229.7,93.3z"/>
	</g>
</g>
</svg>
