<?xml version="1.0" encoding="utf-8"?>
<!-- Generator: Adobe Illustrator 22.1.0, SVG Export Plug-In . SVG Version: 6.00 Build 0)  -->
<svg version="1.1" id="Capa_1" xmlns="http://www.w3.org/2000/svg" xmlns:xlink="http://www.w3.org/1999/xlink" x="0px" y="0px"
	 viewBox="0 0 480 480" style="enable-background:new 0 0 480 480;" xml:space="preserve">
<style type="text/css">
	.st0{fill:#059DE8;}
	.st1{fill:#17469E;}
</style>
<g>
	<path class="st0" d="M32,128h16v192H32V128z"/>
	<path class="st0" d="M80,128h16v192H80V128z"/>
	<path class="st0" d="M96,128h16v192H96V128z"/>
	<path class="st0" d="M128,128h16v192h-16V128z"/>
	<path class="st0" d="M176,128h16v192h-16V128z"/>
	<path class="st0" d="M192,128h16v192h-16V128z"/>
	<path class="st0" d="M224,128h16v192h-16V128z"/>
	<path class="st0" d="M432,128h16v192h-16V128z"/>
	<path class="st0" d="M384,128h16v192h-16V128z"/>
	<path class="st0" d="M368,128h16v192h-16V128z"/>
	<path class="st0" d="M336,128h16v192h-16V128z"/>
	<path class="st0" d="M288,128h16v192h-16V128z"/>
	<path class="st0" d="M240,128h16v192h-16V128z"/>
	<path id="SVGCleanerId_0" class="st0" d="M64,336h16v16H64V336z"/>
	<path id="SVGCleanerId_1" class="st0" d="M96,336h16v16H96V336z"/>
	<path id="SVGCleanerId_2" class="st0" d="M128,336h16v16h-16V336z"/>
	<path id="SVGCleanerId_3" class="st0" d="M160,336h16v16h-16V336z"/>
	<path class="st0" d="M32,336h16v16H32V336z"/>
	<path id="SVGCleanerId_4" class="st0" d="M192,336h16v16h-16V336z"/>
	<path id="SVGCleanerId_5" class="st0" d="M224,336h16v16h-16V336z"/>
	<path id="SVGCleanerId_6" class="st0" d="M256,336h16v16h-16V336z"/>
	<path id="SVGCleanerId_7" class="st0" d="M288,336h16v16h-16V336z"/>
	<path id="SVGCleanerId_8" class="st0" d="M320,336h16v16h-16V336z"/>
	<path id="SVGCleanerId_9" class="st0" d="M352,336h16v16h-16V336z"/>
	<path id="SVGCleanerId_10" class="st0" d="M384,336h16v16h-16V336z"/>
	<g>
		<path id="SVGCleanerId_1_1_" class="st0" d="M96,336h16v16H96V336z"/>
	</g>
	<g>
		<path id="SVGCleanerId_2_1_" class="st0" d="M128,336h16v16h-16V336z"/>
	</g>
	<g>
		<path id="SVGCleanerId_3_1_" class="st0" d="M160,336h16v16h-16V336z"/>
	</g>
	<g>
		<path id="SVGCleanerId_4_1_" class="st0" d="M192,336h16v16h-16V336z"/>
	</g>
	<g>
		<path id="SVGCleanerId_0_1_" class="st0" d="M64,336h16v16H64V336z"/>
	</g>
	<g>
		<path id="SVGCleanerId_5_1_" class="st0" d="M224,336h16v16h-16V336z"/>
	</g>
	<g>
		<path id="SVGCleanerId_6_1_" class="st0" d="M256,336h16v16h-16V336z"/>
	</g>
	<g>
		<path id="SVGCleanerId_7_1_" class="st0" d="M288,336h16v16h-16V336z"/>
	</g>
	<g>
		<path id="SVGCleanerId_8_1_" class="st0" d="M320,336h16v16h-16V336z"/>
	</g>
	<g>
		<path id="SVGCleanerId_9_1_" class="st0" d="M352,336h16v16h-16V336z"/>
	</g>
	<g>
		<path id="SVGCleanerId_10_1_" class="st0" d="M384,336h16v16h-16V336z"/>
	</g>
	<path class="st0" d="M416,336h16v16h-16V336z"/>
</g>
<g>
	<path class="st1" d="M16,112H0V48h64v16H16V112z"/>
	<path class="st1" d="M480,112h-16V64h-48V48h64V112z"/>
	<path class="st1" d="M480,432h-64v-16h48v-48h16V432z"/>
	<path class="st1" d="M64,432H0v-64h16v48h48V432z"/>
	<path class="st1" d="M64,400H32v-32h16v16h16V400z"/>
	<path class="st1" d="M48,112H32V80h32v16H48V112z"/>
	<path class="st1" d="M448,112h-16V96h-16V80h32V112z"/>
	<path class="st1" d="M448,400h-32v-16h16v-16h16V400z"/>
	<path class="st1" d="M80,80h320v16H80V80z"/>
	<path class="st1" d="M80,384h320v16H80V384z"/>
</g>
</svg>
